MicroEV20/simulation/qsim/ev20QUARTUS.msim.vcd
$comment
	File created using the following command:
		vcd file ev20QUARTUS.msim.vcd -direction
$end
$date
	Sun May 10 15:38:09 2020
$end
$version
	ModelSim Version 10.5b
$end
$timescale
	1ps
$end

$scope module ev20main_vlg_vec_tst $end
$var reg 16 ! A [15:0] $end
$var reg 4 " aluC [3:0] $end
$var reg 16 # B [15:0] $end
$var reg 1 $ carryIn $end
$var wire 1 % carryOut $end
$var wire 1 & Z [15] $end
$var wire 1 ' Z [14] $end
$var wire 1 ( Z [13] $end
$var wire 1 ) Z [12] $end
$var wire 1 * Z [11] $end
$var wire 1 + Z [10] $end
$var wire 1 , Z [9] $end
$var wire 1 - Z [8] $end
$var wire 1 . Z [7] $end
$var wire 1 / Z [6] $end
$var wire 1 0 Z [5] $end
$var wire 1 1 Z [4] $end
$var wire 1 2 Z [3] $end
$var wire 1 3 Z [2] $end
$var wire 1 4 Z [1] $end
$var wire 1 5 Z [0] $end

$scope module i1 $end
$var wire 1 6 gnd $end
$var wire 1 7 vcc $end
$var wire 1 8 unknown $end
$var tri1 1 9 devclrn $end
$var tri1 1 : devpor $end
$var tri1 1 ; devoe $end
$var wire 1 < carryOut~output_o $end
$var wire 1 = Z[15]~output_o $end
$var wire 1 > Z[14]~output_o $end
$var wire 1 ? Z[13]~output_o $end
$var wire 1 @ Z[12]~output_o $end
$var wire 1 A Z[11]~output_o $end
$var wire 1 B Z[10]~output_o $end
$var wire 1 C Z[9]~output_o $end
$var wire 1 D Z[8]~output_o $end
$var wire 1 E Z[7]~output_o $end
$var wire 1 F Z[6]~output_o $end
$var wire 1 G Z[5]~output_o $end
$var wire 1 H Z[4]~output_o $end
$var wire 1 I Z[3]~output_o $end
$var wire 1 J Z[2]~output_o $end
$var wire 1 K Z[1]~output_o $end
$var wire 1 L Z[0]~output_o $end
$var wire 1 M aluC[3]~input_o $end
$var wire 1 N B[15]~input_o $end
$var wire 1 O A[15]~input_o $end
$var wire 1 P B[14]~input_o $end
$var wire 1 Q A[14]~input_o $end
$var wire 1 R B[13]~input_o $end
$var wire 1 S A[13]~input_o $end
$var wire 1 T B[12]~input_o $end
$var wire 1 U A[12]~input_o $end
$var wire 1 V B[11]~input_o $end
$var wire 1 W A[11]~input_o $end
$var wire 1 X B[10]~input_o $end
$var wire 1 Y A[10]~input_o $end
$var wire 1 Z B[9]~input_o $end
$var wire 1 [ A[9]~input_o $end
$var wire 1 \ B[8]~input_o $end
$var wire 1 ] A[8]~input_o $end
$var wire 1 ^ B[7]~input_o $end
$var wire 1 _ A[7]~input_o $end
$var wire 1 ` B[6]~input_o $end
$var wire 1 a A[6]~input_o $end
$var wire 1 b B[5]~input_o $end
$var wire 1 c A[5]~input_o $end
$var wire 1 d B[4]~input_o $end
$var wire 1 e A[4]~input_o $end
$var wire 1 f B[3]~input_o $end
$var wire 1 g A[3]~input_o $end
$var wire 1 h B[2]~input_o $end
$var wire 1 i A[2]~input_o $end
$var wire 1 j B[1]~input_o $end
$var wire 1 k A[1]~input_o $end
$var wire 1 l B[0]~input_o $end
$var wire 1 m A[0]~input_o $end
$var wire 1 n inst1|Add1~1 $end
$var wire 1 o inst1|Add1~3 $end
$var wire 1 p inst1|Add1~5 $end
$var wire 1 q inst1|Add1~7 $end
$var wire 1 r inst1|Add1~9 $end
$var wire 1 s inst1|Add1~11 $end
$var wire 1 t inst1|Add1~13 $end
$var wire 1 u inst1|Add1~15 $end
$var wire 1 v inst1|Add1~17 $end
$var wire 1 w inst1|Add1~19 $end
$var wire 1 x inst1|Add1~21 $end
$var wire 1 y inst1|Add1~23 $end
$var wire 1 z inst1|Add1~25 $end
$var wire 1 { inst1|Add1~27 $end
$var wire 1 | inst1|Add1~29 $end
$var wire 1 } inst1|Add1~31 $end
$var wire 1 ~ inst1|Add1~32_combout $end
$var wire 1 !! aluC[2]~input_o $end
$var wire 1 "! aluC[1]~input_o $end
$var wire 1 #! aluC[0]~input_o $end
$var wire 1 $! inst1|Selector0~0_combout $end
$var wire 1 %! inst1|Selector0~1_combout $end
$var wire 1 &! inst1|Mux15~0_combout $end
$var wire 1 '! inst1|Add1~30_combout $end
$var wire 1 (! inst1|Mux15~1_combout $end
$var wire 1 )! inst1|Add1~28_combout $end
$var wire 1 *! inst1|Add1~26_combout $end
$var wire 1 +! inst1|Add1~24_combout $end
$var wire 1 ,! inst1|Add1~22_combout $end
$var wire 1 -! inst1|Add1~20_combout $end
$var wire 1 .! inst1|Add1~18_combout $end
$var wire 1 /! inst1|Add1~16_combout $end
$var wire 1 0! inst1|Add1~14_combout $end
$var wire 1 1! inst1|Add1~12_combout $end
$var wire 1 2! inst1|Add1~10_combout $end
$var wire 1 3! inst1|Add1~8_combout $end
$var wire 1 4! inst1|Add1~6_combout $end
$var wire 1 5! inst1|Add1~4_combout $end
$var wire 1 6! inst1|Add1~2_combout $end
$var wire 1 7! inst1|Add1~0_combout $end
$var wire 1 8! carryIn~input_o $end
$var wire 1 9! inst1|Add0~1 $end
$var wire 1 :! inst1|Add0~3 $end
$var wire 1 ;! inst1|Add0~5 $end
$var wire 1 <! inst1|Add0~7 $end
$var wire 1 =! inst1|Add0~9 $end
$var wire 1 >! inst1|Add0~11 $end
$var wire 1 ?! inst1|Add0~13 $end
$var wire 1 @! inst1|Add0~15 $end
$var wire 1 A! inst1|Add0~17 $end
$var wire 1 B! inst1|Add0~19 $end
$var wire 1 C! inst1|Add0~21 $end
$var wire 1 D! inst1|Add0~23 $end
$var wire 1 E! inst1|Add0~25 $end
$var wire 1 F! inst1|Add0~27 $end
$var wire 1 G! inst1|Add0~29 $end
$var wire 1 H! inst1|Add0~30_combout $end
$var wire 1 I! inst1|Mux15~2_combout $end
$var wire 1 J! inst1|Mux15~3_combout $end
$var wire 1 K! inst1|Mux15~4_combout $end
$var wire 1 L! inst1|aluRes~0_combout $end
$var wire 1 M! inst1|Mux15~5_combout $end
$var wire 1 N! inst1|Mux15~6_combout $end
$var wire 1 O! inst1|Mux16~0_combout $end
$var wire 1 P! inst1|Mux14~0_combout $end
$var wire 1 Q! inst1|Add0~28_combout $end
$var wire 1 R! inst1|Mux14~1_combout $end
$var wire 1 S! inst1|Mux14~2_combout $end
$var wire 1 T! inst1|aluRes~1_combout $end
$var wire 1 U! inst1|Mux14~3_combout $end
$var wire 1 V! inst1|Mux14~4_combout $end
$var wire 1 W! inst1|Mux13~0_combout $end
$var wire 1 X! inst1|Add0~26_combout $end
$var wire 1 Y! inst1|Mux13~1_combout $end
$var wire 1 Z! inst1|Mux13~2_combout $end
$var wire 1 [! inst1|aluRes~2_combout $end
$var wire 1 \! inst1|Mux13~3_combout $end
$var wire 1 ]! inst1|Mux13~4_combout $end
$var wire 1 ^! inst1|Mux12~0_combout $end
$var wire 1 _! inst1|Add0~24_combout $end
$var wire 1 `! inst1|Mux12~1_combout $end
$var wire 1 a! inst1|Mux12~2_combout $end
$var wire 1 b! inst1|aluRes~3_combout $end
$var wire 1 c! inst1|Mux12~3_combout $end
$var wire 1 d! inst1|Mux12~4_combout $end
$var wire 1 e! inst1|Mux11~0_combout $end
$var wire 1 f! inst1|Add0~22_combout $end
$var wire 1 g! inst1|Mux11~1_combout $end
$var wire 1 h! inst1|Mux11~2_combout $end
$var wire 1 i! inst1|aluRes~4_combout $end
$var wire 1 j! inst1|Mux11~3_combout $end
$var wire 1 k! inst1|Mux11~4_combout $end
$var wire 1 l! inst1|Mux10~0_combout $end
$var wire 1 m! inst1|Add0~20_combout $end
$var wire 1 n! inst1|Mux10~1_combout $end
$var wire 1 o! inst1|Mux10~2_combout $end
$var wire 1 p! inst1|aluRes~5_combout $end
$var wire 1 q! inst1|Mux10~3_combout $end
$var wire 1 r! inst1|Mux10~4_combout $end
$var wire 1 s! inst1|Mux9~0_combout $end
$var wire 1 t! inst1|Add0~18_combout $end
$var wire 1 u! inst1|Mux9~1_combout $end
$var wire 1 v! inst1|Mux9~2_combout $end
$var wire 1 w! inst1|aluRes~6_combout $end
$var wire 1 x! inst1|Mux9~3_combout $end
$var wire 1 y! inst1|Mux9~4_combout $end
$var wire 1 z! inst1|Mux8~0_combout $end
$var wire 1 {! inst1|Add0~16_combout $end
$var wire 1 |! inst1|Mux8~1_combout $end
$var wire 1 }! inst1|Mux8~2_combout $end
$var wire 1 ~! inst1|aluRes~7_combout $end
$var wire 1 !" inst1|Mux8~3_combout $end
$var wire 1 "" inst1|Mux8~4_combout $end
$var wire 1 #" inst1|Mux7~0_combout $end
$var wire 1 $" inst1|Add0~14_combout $end
$var wire 1 %" inst1|Mux7~1_combout $end
$var wire 1 &" inst1|Mux7~2_combout $end
$var wire 1 '" inst1|aluRes~8_combout $end
$var wire 1 (" inst1|Mux7~3_combout $end
$var wire 1 )" inst1|Mux7~4_combout $end
$var wire 1 *" inst1|Mux6~0_combout $end
$var wire 1 +" inst1|Add0~12_combout $end
$var wire 1 ," inst1|Mux6~1_combout $end
$var wire 1 -" inst1|Mux6~2_combout $end
$var wire 1 ." inst1|aluRes~9_combout $end
$var wire 1 /" inst1|Mux6~3_combout $end
$var wire 1 0" inst1|Mux6~4_combout $end
$var wire 1 1" inst1|Mux5~0_combout $end
$var wire 1 2" inst1|Add0~10_combout $end
$var wire 1 3" inst1|Mux5~1_combout $end
$var wire 1 4" inst1|Mux5~2_combout $end
$var wire 1 5" inst1|aluRes~10_combout $end
$var wire 1 6" inst1|Mux5~3_combout $end
$var wire 1 7" inst1|Mux5~4_combout $end
$var wire 1 8" inst1|Mux4~0_combout $end
$var wire 1 9" inst1|Add0~8_combout $end
$var wire 1 :" inst1|Mux4~1_combout $end
$var wire 1 ;" inst1|Mux4~2_combout $end
$var wire 1 <" inst1|aluRes~11_combout $end
$var wire 1 =" inst1|Mux4~3_combout $end
$var wire 1 >" inst1|Mux4~4_combout $end
$var wire 1 ?" inst1|Mux3~0_combout $end
$var wire 1 @" inst1|Add0~6_combout $end
$var wire 1 A" inst1|Mux3~1_combout $end
$var wire 1 B" inst1|Mux3~2_combout $end
$var wire 1 C" inst1|aluRes~12_combout $end
$var wire 1 D" inst1|Mux3~3_combout $end
$var wire 1 E" inst1|Mux3~4_combout $end
$var wire 1 F" inst1|Mux0~0_combout $end
$var wire 1 G" inst1|Add0~4_combout $end
$var wire 1 H" inst1|Mux0~1_combout $end
$var wire 1 I" inst1|Mux0~2_combout $end
$var wire 1 J" inst1|aluRes~13_combout $end
$var wire 1 K" inst1|Mux0~3_combout $end
$var wire 1 L" inst1|Mux0~4_combout $end
$var wire 1 M" inst1|Mux1~0_combout $end
$var wire 1 N" inst1|Add0~2_combout $end
$var wire 1 O" inst1|Mux1~1_combout $end
$var wire 1 P" inst1|Mux1~2_combout $end
$var wire 1 Q" inst1|aluRes~14_combout $end
$var wire 1 R" inst1|Mux1~3_combout $end
$var wire 1 S" inst1|Mux1~4_combout $end
$var wire 1 T" inst1|Add0~0_combout $end
$var wire 1 U" inst1|Mux2~0_combout $end
$var wire 1 V" inst1|Mux2~1_combout $end
$var wire 1 W" inst1|Mux2~2_combout $end
$var wire 1 X" inst1|Mux2~3_combout $end
$var wire 1 Y" inst1|Mux2~4_combout $end
$var wire 1 Z" inst1|Mux2~5_combout $end
$var wire 1 [" inst1|Mux2~6_combout $end
$var wire 1 \" inst1|Mux2~7_combout $end
$var wire 1 ]" inst1|Mux2~8_combout $end
$var wire 1 ^" inst1|Mux2~9_combout $end
$var wire 1 _" inst1|Mux2~10_combout $end
$var wire 1 `" inst1|Mux2~11_combout $end
$var wire 1 a" inst1|Mux2~12_combout $end
$var wire 1 b" inst1|LessThan0~1_cout $end
$var wire 1 c" inst1|LessThan0~3_cout $end
$var wire 1 d" inst1|LessThan0~5_cout $end
$var wire 1 e" inst1|LessThan0~7_cout $end
$var wire 1 f" inst1|LessThan0~9_cout $end
$var wire 1 g" inst1|LessThan0~11_cout $end
$var wire 1 h" inst1|LessThan0~13_cout $end
$var wire 1 i" inst1|LessThan0~15_cout $end
$var wire 1 j" inst1|LessThan0~17_cout $end
$var wire 1 k" inst1|LessThan0~19_cout $end
$var wire 1 l" inst1|LessThan0~21_cout $end
$var wire 1 m" inst1|LessThan0~23_cout $end
$var wire 1 n" inst1|LessThan0~25_cout $end
$var wire 1 o" inst1|LessThan0~27_cout $end
$var wire 1 p" inst1|LessThan0~29_cout $end
$var wire 1 q" inst1|LessThan0~30_combout $end
$var wire 1 r" inst1|Mux2~13_combout $end
$var wire 1 s" inst1|Mux2~14_combout $end
$var wire 1 t" inst1|Mux2~15_combout $end
$var wire 1 u" inst1|Mux2~16_combout $end
$var wire 1 v" inst1|aluRes [15] $end
$var wire 1 w" inst1|aluRes [14] $end
$var wire 1 x" inst1|aluRes [13] $end
$var wire 1 y" inst1|aluRes [12] $end
$var wire 1 z" inst1|aluRes [11] $end
$var wire 1 {" inst1|aluRes [10] $end
$var wire 1 |" inst1|aluRes [9] $end
$var wire 1 }" inst1|aluRes [8] $end
$var wire 1 ~" inst1|aluRes [7] $end
$var wire 1 !# inst1|aluRes [6] $end
$var wire 1 "# inst1|aluRes [5] $end
$var wire 1 ## inst1|aluRes [4] $end
$var wire 1 $# inst1|aluRes [3] $end
$var wire 1 %# inst1|aluRes [2] $end
$var wire 1 &# inst1|aluRes [1] $end
$var wire 1 '# inst1|aluRes [0] $end
$upscope $end
$upscope $end
$enddefinitions $end
#0
$dumpvars
b11111111 !
b100 "
b1111 #
0$
0%
05
14
13
12
01
00
0/
0.
1-
0,
0+
0*
0)
0(
0'
0&
06
17
x8
19
1:
1;
0<
0=
0>
0?
0@
0A
0B
0C
1D
0E
0F
0G
0H
1I
1J
1K
0L
0M
0N
0O
0P
0Q
0R
0S
0T
0U
0V
0W
0X
0Y
0Z
0[
0\
0]
0^
1_
0`
1a
0b
1c
0d
1e
1f
1g
1h
1i
1j
1k
1l
1m
1n
0o
1p
0q
1r
0s
1t
0u
0v
1w
0x
1y
0z
1{
0|
1}
0~
1!!
0"!
0#!
0$!
0%!
0&!
0'!
1(!
0)!
0*!
0+!
0,!
0-!
0.!
1/!
00!
01!
02!
03!
14!
15!
16!
07!
08!
09!
1:!
0;!
1<!
0=!
1>!
0?!
1@!
0A!
1B!
0C!
1D!
0E!
1F!
0G!
0H!
0I!
0J!
0K!
0L!
0M!
0N!
0O!
0P!
0Q!
0R!
0S!
0T!
0U!
0V!
0W!
0X!
0Y!
0Z!
0[!
0\!
0]!
0^!
0_!
0`!
0a!
0b!
0c!
0d!
0e!
0f!
0g!
0h!
0i!
0j!
0k!
0l!
0m!
0n!
0o!
0p!
0q!
0r!
0s!
0t!
0u!
0v!
0w!
0x!
0y!
0z!
1{!
1|!
1}!
0~!
1!"
1""
0#"
0$"
1%"
0&"
1'"
0("
0)"
0*"
0+"
1,"
0-"
1."
0/"
00"
01"
02"
13"
04"
15"
06"
07"
08"
09"
1:"
0;"
1<"
0="
0>"
0?"
1@"
1A"
0B"
1C"
1D"
1E"
0F"
1G"
1H"
1I"
1J"
1K"
1L"
0M"
1N"
1O"
0P"
1Q"
1R"
1S"
0T"
1U"
0V"
1W"
0X"
0Y"
0Z"
0["
1\"
1]"
1^"
1_"
1`"
0a"
0b"
1c"
0d"
1e"
1f"
0g"
1h"
0i"
1j"
0k"
1l"
0m"
1n"
0o"
1p"
1q"
1r"
1s"
1t"
0u"
0'#
1&#
1%#
1$#
0##
0"#
0!#
0~"
1}"
0|"
0{"
0z"
0y"
0x"
0w"
0v"
$end
#40000
b101 "
1#!
1V"
0U"
0:"
18"
03"
11"
0,"
1*"
0%"
1#"
0|!
1I!
0(!
1$!
1u"
0V"
0}!
1P"
0I"
1B"
0!"
0R"
0D"
0u"
1!"
1R"
1D"
0""
0S"
0E"
1'#
1L
1""
1S"
1E"
15
0'#
0}"
0&#
0$#
0I
0K
0D
0L
05
0-
04
02
1}"
1&#
1$#
1I
1K
1D
1-
14
12
#80000
1$
18!
1T"
1U"
1V"
1u"
1'#
1L
15
#120000
b111 "
b100000001111 #
b101000001111 #
b101010001111 #
b101010101111 #
b101010101011 #
b101010101010 #
0$
0l
0h
1b
1^
1Z
1V
1"!
08!
0r"
1b"
0_"
0n
17!
1d"
0W"
1F"
05!
01"
12!
1Z"
0#"
10!
1k"
0\"
1w!
1s!
1.!
1m"
0]"
1i!
1e!
1,!
0t"
0V"
0O"
0A"
1,"
1}!
1n!
1`!
1Y!
1R!
1J!
0I!
1(!
0T"
0s"
0c"
0`"
06!
1a"
1V"
1T"
0e"
0G"
16"
12"
1("
1$"
0l"
1x!
1t!
0n"
1j!
1f!
0u"
0P"
0B"
0K"
0U"
1t"
0R"
0N"
1u"
1U"
17"
1)"
1y!
1o"
1k!
0L"
0'#
0L
0S"
0p"
05
1'#
1"#
1~"
1|"
1z"
0%#
0J
1A
1C
1E
1G
1L
0q"
15
10
1.
1,
1*
03
0&#
0K
04
#140000
b110 "
0#!
1r"
0a"
0H"
0F"
1:"
08"
0,"
0*"
1|!
1u!
0s!
1g!
0e!
1I!
0t"
1I"
1;"
1-"
1v!
1h!
1P"
1B"
14"
1&"
0!"
1o!
1a!
1Z!
1S!
1K!
1K"
1="
1/"
1R"
0""
1L"
1>"
10"
1S"
0}"
0D
0-
1%#
1##
1!#
1&#
1K
1F
1H
1J
13
11
1/
14
#160000
b1110 "
b1010 "
b1010101010 #
b10101010 #
b101010 #
b1010 #
b1110 #
b1111 #
1l
1h
0b
0^
0Z
0V
0!!
1M
0r"
0b"
1_"
1n
07!
1W"
1F"
15!
11"
02!
0Z"
1#"
00!
0k"
1\"
0w!
1s!
0.!
1]"
0i!
1e!
0,!
0u"
1t"
1s"
1M"
1?"
0;"
18"
1*"
0}!
0|!
1z!
1l!
1^!
1W!
1P!
0I!
0(!
1&!
0$!
0S"
0L"
0E"
0>"
07"
00"
0)"
0y!
0k!
0s"
1c"
1`"
16!
0T"
1L"
0I"
1G"
17"
02"
1)"
0$"
1l"
1y!
0t!
1k!
0f!
1u"
0t"
1S"
1E"
0="
1>"
10"
1}!
1""
1r!
1d!
1]!
1V!
0P"
0B"
04"
0-"
0&"
1q!
1c!
1U!
1\!
1M!
1N!
0'#
0&#
0%#
0$#
0##
0"#
0!#
0~"
0|"
0z"
0A
0C
0E
0F
0G
0H
0I
0J
0K
0L
1t"
0d"
0R"
1N"
0K"
0m"
0u"
1!"
0D"
06"
0/"
0("
05
04
03
02
01
00
0/
0.
0,
0*
1%#
1"#
1~"
1|"
1z"
1'#
1&#
1$#
1##
1!#
1}"
1{"
1y"
1x"
1w"
1v"
1=
1>
1?
1@
1B
1D
1F
1H
1I
1K
1L
1A
1C
1E
1G
1J
1u"
1e"
1n"
13
10
1.
1,
1*
15
14
12
11
1/
1-
1+
1)
1(
1'
1&
0'#
0L
0o"
05
1'#
1L
1p"
15
1q"
#200000
b1011 "
1#!
1r"
0V"
0U"
0:"
13"
1,"
1%"
1O!
1$!
1s"
1;"
14"
1-"
1&"
0t"
1="
16"
1/"
1("
0u"
#210000
b1001 "
b1 "
b0 "
0#!
0"!
0M
1U"
1O"
1H"
1A"
1:"
0u!
0n!
0g!
0`!
0Y!
0R!
0O!
0J!
0$!
1t"
0S"
0L"
0E"
0;"
0}!
1P"
1I"
1B"
1;"
0v!
0o!
0h!
0a!
0Z!
0S!
0K!
1u"
0="
0!"
0'#
0&#
0%#
0$#
0I
0J
0K
0L
1R"
1K"
1D"
1="
0x!
0q!
0j!
0c!
0\!
0U!
0M!
0>"
0""
05
04
03
02
1'#
1L
1S"
1L"
1E"
1>"
0y!
0r!
0k!
0d!
0]!
0V!
0N!
15
0##
0}"
0D
0H
01
0-
1&#
1%#
1$#
1##
0|"
0{"
0z"
0y"
0x"
0w"
0v"
0=
0>
0?
0@
0A
0B
0C
1H
1I
1J
1K
14
13
12
11
0,
0+
0*
0)
0(
0'
0&
#330000
b10 "
1"!
0t"
1V"
0O"
0H"
0A"
0;"
03"
0,"
0%"
1}!
1u!
1n!
1g!
1`!
1Y!
1R!
1J!
0u"
0P"
0I"
0B"
0="
04"
0-"
0&"
1!"
1v!
1o!
1h!
1a!
1Z!
1S!
1K!
0R"
0K"
0D"
0>"
06"
0/"
0("
1""
1x!
1q!
1j!
1c!
1\!
1U!
1M!
0'#
0L
0S"
0L"
0E"
07"
00"
0)"
1y!
1r!
1k!
1d!
1]!
1V!
1N!
05
0##
1}"
1D
0H
01
1-
0&#
0%#
0$#
0"#
0!#
0~"
1|"
1{"
1z"
1y"
1x"
1w"
1v"
1=
1>
1?
1@
1A
1B
1C
0E
0F
0G
0I
0J
0K
04
03
02
00
0/
0.
1,
1+
1*
1)
1(
1'
1&
#360000
b110 "
1!!
1u"
0M"
0F"
0?"
1;"
08"
01"
0*"
0#"
1|!
0z!
0s!
0l!
0e!
0^!
0W!
0P!
1I!
1(!
0&!
1$!
1="
1P"
1K"
1I"
1B"
14"
1-"
1&"
0!"
0q!
0c!
0U!
1R"
1D"
0x!
0j!
0\!
0M!
1'#
1L
1>"
1L"
16"
1/"
1("
0""
0r!
0d!
0V!
1S"
1E"
0y!
0k!
0]!
0N!
15
17"
10"
1)"
1##
1%#
0}"
0{"
0y"
0w"
1&#
1$#
0|"
0z"
0x"
0v"
0=
0?
0A
0C
1I
1K
0>
0@
0B
0D
1J
1H
11
13
0-
0+
0)
0'
14
12
0,
0*
0(
0&
1"#
1!#
1~"
1E
1F
1G
10
1/
1.
#400000
b1110 "
b1111 "
b1101 "
1#!
0"!
1M
0U"
1O"
1H"
1A"
0:"
18"
11"
1*"
1#"
0|!
0u!
0n!
0g!
0`!
0Y!
0R!
0J!
0(!
1t"
0S"
0L"
0E"
0>"
0;"
07"
00"
0)"
0u"
0V"
0I"
0}!
0v!
0o!
0h!
0a!
0Z!
0S!
0K!
04"
0-"
0&"
1x!
1j!
1\!
1M!
1u"
0="
0&#
0%#
0$#
0##
0"#
0!#
0~"
0'#
0L
0E
0F
0G
0H
0I
0J
0K
1!"
0x!
0j!
0\!
0M!
06"
0/"
0("
04
03
02
01
00
0/
0.
05
1'#
1L
15
#440000
b101 "
b100 "
b110 "
0#!
1"!
0M
1U"
0O"
0H"
0A"
1:"
08"
01"
0*"
0#"
1|!
1u!
1n!
1g!
1`!
1Y!
1R!
1J!
1(!
0t"
1S"
1L"
1E"
1""
1}!
0u"
1V"
1I"
1;"
1v!
1o!
1h!
1a!
1Z!
1S!
1K!
14"
1-"
1&"
0!"
1&#
1%#
1$#
1}"
0'#
0L
1D
1I
1J
1K
1u"
1="
16"
1/"
1("
0""
14
13
12
1-
05
1>"
17"
10"
1)"
1'#
0}"
0D
1L
15
0-
1##
1"#
1!#
1~"
1E
1F
1G
1H
11
10
1/
1.
#480000
b10 "
b11 "
b1 "
1#!
0"!
0!!
0U"
1O"
1M"
1H"
1F"
1A"
1?"
0:"
18"
11"
1*"
1#"
0|!
1z!
0u!
1s!
0n!
1l!
0g!
1e!
0`!
1^!
0Y!
1W!
0R!
1P!
0J!
0I!
0(!
1&!
0$!
1t"
0u"
0V"
0;"
0}!
0v!
0o!
0h!
0a!
0Z!
0S!
0K!
04"
0-"
0&"
1!"
1q!
1c!
1U!
1x!
1j!
1\!
1M!
1u"
0'#
0L
0="
0!"
0x!
0q!
0j!
0c!
0\!
0U!
0M!
06"
0/"
0("
1""
1r!
1d!
1V!
1y!
1k!
1]!
1N!
05
1'#
1L
0>"
0""
0y!
0r!
0k!
0d!
0]!
0V!
0N!
07"
00"
0)"
15
1}"
1{"
1y"
1w"
1|"
1z"
1x"
1v"
1=
1?
1A
1C
1>
1@
1B
1D
1-
1+
1)
1'
1,
1*
1(
1&
0##
0}"
0|"
0{"
0z"
0y"
0x"
0w"
0v"
0"#
0!#
0~"
0E
0F
0G
0=
0>
0?
0@
0A
0B
0C
0D
0H
01
0-
0,
0+
0*
0)
0(
0'
0&
00
0/
0.
#560000
b1001 "
b1101 "
1!!
1M
0M"
0F"
0?"
0z!
0s!
0l!
0e!
0^!
0W!
0P!
1I!
0&!
1$!
0S"
0L"
0E"
1%!
1<
0I"
1!"
1%
0%!
0&#
0%#
0$#
0I
0J
0K
0<
0%
04
03
02
#600000
b1100 "
b1110 "
b110 "
b10 "
0#!
1"!
0!!
0M
1U"
0O"
1M"
0H"
1F"
0A"
1?"
1:"
1z!
1u!
1s!
1n!
1l!
1g!
1e!
1`!
1^!
1Y!
1W!
1R!
1P!
1J!
0I!
1&!
0$!
0t"
1S"
1L"
1E"
1;"
1""
1}!
1V"
0P"
0B"
0;"
1v!
1o!
1h!
1a!
1Z!
1S!
1K!
0K"
1="
0u"
1&#
1%#
1$#
1}"
1D
1I
1J
1K
0R"
0D"
0="
1x!
1q!
1j!
1c!
1\!
1U!
1M!
0L"
1>"
14
13
12
1-
0'#
0L
0S"
0E"
0>"
1y!
1r!
1k!
1d!
1]!
1V!
1N!
05
0%#
1##
1H
0J
03
11
0&#
0$#
0##
1|"
1{"
1z"
1y"
1x"
1w"
1v"
1=
1>
1?
1@
1A
1B
1C
0H
0I
0K
04
02
01
1,
1+
1*
1)
1(
1'
1&
#640000
b11 "
b1011 "
1#!
1M
0V"
0U"
0:"
13"
1,"
1%"
1O!
1$!
1S"
1L"
1E"
1>"
17"
10"
1)"
1;"
14"
1-"
1&"
1="
16"
1/"
1("
#720000
b1111 "
b111 "
1!!
0M
0M"
0F"
0?"
0;"
0z!
0s!
0l!
0e!
0^!
0W!
0P!
0O!
1(!
0&!
0S"
0L"
0E"
0="
1R"
1I"
1D"
04"
0-"
0&"
0x!
0v!
0o!
0j!
0h!
0a!
0\!
0Z!
0S!
0M!
0K!
1##
1"#
1!#
1~"
1E
1F
1G
1H
0>"
1S"
1K"
1E"
06"
0/"
0("
0y!
0q!
0k!
0c!
0]!
0U!
0N!
11
10
1/
1.
1L"
07"
00"
0)"
0r!
0d!
0V!
0##
1&#
1$#
0|"
0z"
0x"
0v"
0=
0?
0A
0C
1I
1K
0H
01
14
12
0,
0*
0(
0&
1%#
0"#
0!#
0~"
0{"
0y"
0w"
0>
0@
0B
0E
0F
0G
1J
13
00
0/
0.
0+
0)
0'
#760000
b101 "
b1 "
b1001 "
0"!
0!!
1M
1t"
0S"
1O"
0L"
1H"
0E"
1A"
03"
0,"
0%"
0""
0}!
0u!
0n!
0g!
0`!
0Y!
0R!
0J!
0(!
0$!
1M"
1F"
1?"
1z!
1s!
1l!
1e!
1^!
1W!
1P!
1&!
1u"
1P"
1B"
0!"
0R"
0D"
0&#
0%#
0$#
0}"
0D
0I
0J
0K
1R"
1D"
04
03
02
0-
1'#
1L
15
#800000
b1000 "
b1010 "
b1110 "
0#!
1"!
1!!
0r"
1U"
0O"
0M"
0H"
0F"
0A"
0?"
1:"
08"
01"
0*"
0#"
1|!
0z!
1u!
0s!
1n!
0l!
1g!
0e!
1`!
0^!
1Y!
0W!
1R!
0P!
1J!
1I!
1(!
0&!
1$!
0t"
1S"
1L"
1E"
1>"
17"
10"
1)"
1""
1}!
1y!
1r!
1k!
1d!
1]!
1V!
1N!
1%!
1<
0s"
1V"
0S"
0L"
0E"
1;"
0>"
07"
00"
0)"
0""
1v!
0y!
1o!
0r!
1h!
0k!
1a!
0d!
1Z!
0]!
1S!
0V!
1K!
14"
1-"
1&"
0N!
0u"
1%
0%!
1&#
1%#
1$#
1##
1"#
1!#
1~"
1}"
1|"
1{"
1z"
1y"
1x"
1w"
1v"
1=
1>
1?
1@
1A
1B
1C
1D
1E
1F
1G
1H
1I
1J
1K
0<
1="
16"
1/"
1("
0%
14
13
12
11
10
1/
1.
1-
1,
1+
1*
1)
1(
1'
1&
0&#
0%#
0$#
0##
0"#
0!#
0~"
0}"
0|"
0{"
0z"
0y"
0x"
0w"
0v"
0'#
0L
0=
0>
0?
0@
0A
0B
0C
0D
0E
0F
0G
0H
0I
0J
0K
04
03
02
01
00
0/
0.
0-
0,
0+
0*
0)
0(
0'
0&
05
#840000
b110 "
b111 "
b11 "
1#!
0!!
0M
1r"
0V"
0U"
1M"
1F"
1?"
0:"
18"
13"
11"
1,"
1*"
1%"
1#"
0|!
1z!
1s!
1l!
1e!
1^!
1W!
1P!
0I!
0(!
1&!
1t"
0;"
0}!
1S"
1L"
1E"
1>"
17"
10"
1)"
1s"
1u"
1;"
1}!
0P"
0I"
0B"
0="
1q!
1c!
1U!
1x!
1j!
1\!
1M!
1&#
1%#
1$#
1##
1"#
1!#
1~"
1E
1F
1G
1H
1I
1J
1K
0t"
1="
1!"
0R"
0K"
0D"
0>"
1r!
1d!
1V!
1y!
1k!
1]!
1N!
14
13
12
11
10
1/
1.
1'#
1L
0u"
1>"
1""
0S"
0L"
0E"
15
0##
1{"
1y"
1w"
1|"
1z"
1x"
1v"
1=
1?
1A
1C
1>
1@
1B
0H
01
1+
1)
1'
1,
1*
1(
1&
0'#
1##
1}"
0&#
0%#
0$#
0I
0J
0K
1D
1H
0L
05
11
1-
04
03
02
#880000
b10 "
0#!
1U"
1:"
03"
0,"
0%"
0$!
1V"
0;"
04"
0-"
0&"
0="
06"
0/"
0("
0>"
07"
00"
0)"
0##
0"#
0!#
0~"
0E
0F
0G
0H
01
00
0/
0.
