MicroEV20/simulation/qsim/ev20QUARTUS.msim.vcd
$comment
	File created using the following command:
		vcd file ev20QUARTUS.msim.vcd -direction
$end
$date
	Mon May 25 02:17:09 2020
$end
$version
	ModelSim Version 10.5b
$end
$timescale
	1ps
$end

$scope module ev20main_vlg_vec_tst $end
$var reg 16 ! B_OP_IN [15:0] $end
$var reg 1 " CLK $end
$var reg 1 # CLK_HOLD_IN $end
$var reg 1 $ CLK_IN $end
$var reg 1 % MUXSEL_IN $end
$var reg 16 & OPERANDS_IN [15:0] $end
$var reg 16 ' XMUX_IN [15:0] $end
$var wire 1 ( A_OUT [15] $end
$var wire 1 ) A_OUT [14] $end
$var wire 1 * A_OUT [13] $end
$var wire 1 + A_OUT [12] $end
$var wire 1 , A_OUT [11] $end
$var wire 1 - A_OUT [10] $end
$var wire 1 . A_OUT [9] $end
$var wire 1 / A_OUT [8] $end
$var wire 1 0 A_OUT [7] $end
$var wire 1 1 A_OUT [6] $end
$var wire 1 2 A_OUT [5] $end
$var wire 1 3 A_OUT [4] $end
$var wire 1 4 A_OUT [3] $end
$var wire 1 5 A_OUT [2] $end
$var wire 1 6 A_OUT [1] $end
$var wire 1 7 A_OUT [0] $end
$var wire 1 8 B_OUT [15] $end
$var wire 1 9 B_OUT [14] $end
$var wire 1 : B_OUT [13] $end
$var wire 1 ; B_OUT [12] $end
$var wire 1 < B_OUT [11] $end
$var wire 1 = B_OUT [10] $end
$var wire 1 > B_OUT [9] $end
$var wire 1 ? B_OUT [8] $end
$var wire 1 @ B_OUT [7] $end
$var wire 1 A B_OUT [6] $end
$var wire 1 B B_OUT [5] $end
$var wire 1 C B_OUT [4] $end
$var wire 1 D B_OUT [3] $end
$var wire 1 E B_OUT [2] $end
$var wire 1 F B_OUT [1] $end
$var wire 1 G B_OUT [0] $end

$scope module i1 $end
$var wire 1 H gnd $end
$var wire 1 I vcc $end
$var wire 1 J unknown $end
$var tri1 1 K devclrn $end
$var tri1 1 L devpor $end
$var tri1 1 M devoe $end
$var wire 1 N CLK~input_o $end
$var wire 1 O A_OUT[15]~output_o $end
$var wire 1 P A_OUT[14]~output_o $end
$var wire 1 Q A_OUT[13]~output_o $end
$var wire 1 R A_OUT[12]~output_o $end
$var wire 1 S A_OUT[11]~output_o $end
$var wire 1 T A_OUT[10]~output_o $end
$var wire 1 U A_OUT[9]~output_o $end
$var wire 1 V A_OUT[8]~output_o $end
$var wire 1 W A_OUT[7]~output_o $end
$var wire 1 X A_OUT[6]~output_o $end
$var wire 1 Y A_OUT[5]~output_o $end
$var wire 1 Z A_OUT[4]~output_o $end
$var wire 1 [ A_OUT[3]~output_o $end
$var wire 1 \ A_OUT[2]~output_o $end
$var wire 1 ] A_OUT[1]~output_o $end
$var wire 1 ^ A_OUT[0]~output_o $end
$var wire 1 _ B_OUT[15]~output_o $end
$var wire 1 ` B_OUT[14]~output_o $end
$var wire 1 a B_OUT[13]~output_o $end
$var wire 1 b B_OUT[12]~output_o $end
$var wire 1 c B_OUT[11]~output_o $end
$var wire 1 d B_OUT[10]~output_o $end
$var wire 1 e B_OUT[9]~output_o $end
$var wire 1 f B_OUT[8]~output_o $end
$var wire 1 g B_OUT[7]~output_o $end
$var wire 1 h B_OUT[6]~output_o $end
$var wire 1 i B_OUT[5]~output_o $end
$var wire 1 j B_OUT[4]~output_o $end
$var wire 1 k B_OUT[3]~output_o $end
$var wire 1 l B_OUT[2]~output_o $end
$var wire 1 m B_OUT[1]~output_o $end
$var wire 1 n B_OUT[0]~output_o $end
$var wire 1 o XMUX_IN[15]~input_o $end
$var wire 1 p CLK_HOLD_IN~input_o $end
$var wire 1 q OPERANDS_IN[15]~input_o $end
$var wire 1 r MUXSEL_IN~input_o $end
$var wire 1 s inst16|inst8|$00000|auto_generated|result_node[15]~0_combout $end
$var wire 1 t CLK_IN~input_o $end
$var wire 1 u XMUX_IN[14]~input_o $end
$var wire 1 v OPERANDS_IN[14]~input_o $end
$var wire 1 w inst16|inst8|$00000|auto_generated|result_node[14]~1_combout $end
$var wire 1 x XMUX_IN[13]~input_o $end
$var wire 1 y OPERANDS_IN[13]~input_o $end
$var wire 1 z inst16|inst8|$00000|auto_generated|result_node[13]~2_combout $end
$var wire 1 { XMUX_IN[12]~input_o $end
$var wire 1 | OPERANDS_IN[12]~input_o $end
$var wire 1 } inst16|inst8|$00000|auto_generated|result_node[12]~3_combout $end
$var wire 1 ~ XMUX_IN[11]~input_o $end
$var wire 1 !! OPERANDS_IN[11]~input_o $end
$var wire 1 "! inst16|inst8|$00000|auto_generated|result_node[11]~4_combout $end
$var wire 1 #! XMUX_IN[10]~input_o $end
$var wire 1 $! OPERANDS_IN[10]~input_o $end
$var wire 1 %! inst16|inst8|$00000|auto_generated|result_node[10]~5_combout $end
$var wire 1 &! XMUX_IN[9]~input_o $end
$var wire 1 '! OPERANDS_IN[9]~input_o $end
$var wire 1 (! inst16|inst8|$00000|auto_generated|result_node[9]~6_combout $end
$var wire 1 )! XMUX_IN[8]~input_o $end
$var wire 1 *! OPERANDS_IN[8]~input_o $end
$var wire 1 +! inst16|inst8|$00000|auto_generated|result_node[8]~7_combout $end
$var wire 1 ,! XMUX_IN[7]~input_o $end
$var wire 1 -! OPERANDS_IN[7]~input_o $end
$var wire 1 .! inst16|inst8|$00000|auto_generated|result_node[7]~8_combout $end
$var wire 1 /! XMUX_IN[6]~input_o $end
$var wire 1 0! OPERANDS_IN[6]~input_o $end
$var wire 1 1! inst16|inst8|$00000|auto_generated|result_node[6]~9_combout $end
$var wire 1 2! XMUX_IN[5]~input_o $end
$var wire 1 3! OPERANDS_IN[5]~input_o $end
$var wire 1 4! inst16|inst8|$00000|auto_generated|result_node[5]~10_combout $end
$var wire 1 5! XMUX_IN[4]~input_o $end
$var wire 1 6! OPERANDS_IN[4]~input_o $end
$var wire 1 7! inst16|inst8|$00000|auto_generated|result_node[4]~11_combout $end
$var wire 1 8! XMUX_IN[3]~input_o $end
$var wire 1 9! OPERANDS_IN[3]~input_o $end
$var wire 1 :! inst16|inst8|$00000|auto_generated|result_node[3]~12_combout $end
$var wire 1 ;! XMUX_IN[2]~input_o $end
$var wire 1 <! OPERANDS_IN[2]~input_o $end
$var wire 1 =! inst16|inst8|$00000|auto_generated|result_node[2]~13_combout $end
$var wire 1 >! XMUX_IN[1]~input_o $end
$var wire 1 ?! OPERANDS_IN[1]~input_o $end
$var wire 1 @! inst16|inst8|$00000|auto_generated|result_node[1]~14_combout $end
$var wire 1 A! XMUX_IN[0]~input_o $end
$var wire 1 B! OPERANDS_IN[0]~input_o $end
$var wire 1 C! inst16|inst8|$00000|auto_generated|result_node[0]~15_combout $end
$var wire 1 D! B_OP_IN[15]~input_o $end
$var wire 1 E! B_OP_IN[14]~input_o $end
$var wire 1 F! B_OP_IN[13]~input_o $end
$var wire 1 G! B_OP_IN[12]~input_o $end
$var wire 1 H! B_OP_IN[11]~input_o $end
$var wire 1 I! B_OP_IN[10]~input_o $end
$var wire 1 J! B_OP_IN[9]~input_o $end
$var wire 1 K! B_OP_IN[8]~input_o $end
$var wire 1 L! B_OP_IN[7]~input_o $end
$var wire 1 M! B_OP_IN[6]~input_o $end
$var wire 1 N! B_OP_IN[5]~input_o $end
$var wire 1 O! B_OP_IN[4]~input_o $end
$var wire 1 P! B_OP_IN[3]~input_o $end
$var wire 1 Q! B_OP_IN[2]~input_o $end
$var wire 1 R! B_OP_IN[1]~input_o $end
$var wire 1 S! B_OP_IN[0]~input_o $end
$var wire 1 T! inst16|OperandRegister|dffs [15] $end
$var wire 1 U! inst16|OperandRegister|dffs [14] $end
$var wire 1 V! inst16|OperandRegister|dffs [13] $end
$var wire 1 W! inst16|OperandRegister|dffs [12] $end
$var wire 1 X! inst16|OperandRegister|dffs [11] $end
$var wire 1 Y! inst16|OperandRegister|dffs [10] $end
$var wire 1 Z! inst16|OperandRegister|dffs [9] $end
$var wire 1 [! inst16|OperandRegister|dffs [8] $end
$var wire 1 \! inst16|OperandRegister|dffs [7] $end
$var wire 1 ]! inst16|OperandRegister|dffs [6] $end
$var wire 1 ^! inst16|OperandRegister|dffs [5] $end
$var wire 1 _! inst16|OperandRegister|dffs [4] $end
$var wire 1 `! inst16|OperandRegister|dffs [3] $end
$var wire 1 a! inst16|OperandRegister|dffs [2] $end
$var wire 1 b! inst16|OperandRegister|dffs [1] $end
$var wire 1 c! inst16|OperandRegister|dffs [0] $end
$var wire 1 d! inst16|LatchA|latches [15] $end
$var wire 1 e! inst16|LatchA|latches [14] $end
$var wire 1 f! inst16|LatchA|latches [13] $end
$var wire 1 g! inst16|LatchA|latches [12] $end
$var wire 1 h! inst16|LatchA|latches [11] $end
$var wire 1 i! inst16|LatchA|latches [10] $end
$var wire 1 j! inst16|LatchA|latches [9] $end
$var wire 1 k! inst16|LatchA|latches [8] $end
$var wire 1 l! inst16|LatchA|latches [7] $end
$var wire 1 m! inst16|LatchA|latches [6] $end
$var wire 1 n! inst16|LatchA|latches [5] $end
$var wire 1 o! inst16|LatchA|latches [4] $end
$var wire 1 p! inst16|LatchA|latches [3] $end
$var wire 1 q! inst16|LatchA|latches [2] $end
$var wire 1 r! inst16|LatchA|latches [1] $end
$var wire 1 s! inst16|LatchA|latches [0] $end
$var wire 1 t! inst16|LatchB|latches [15] $end
$var wire 1 u! inst16|LatchB|latches [14] $end
$var wire 1 v! inst16|LatchB|latches [13] $end
$var wire 1 w! inst16|LatchB|latches [12] $end
$var wire 1 x! inst16|LatchB|latches [11] $end
$var wire 1 y! inst16|LatchB|latches [10] $end
$var wire 1 z! inst16|LatchB|latches [9] $end
$var wire 1 {! inst16|LatchB|latches [8] $end
$var wire 1 |! inst16|LatchB|latches [7] $end
$var wire 1 }! inst16|LatchB|latches [6] $end
$var wire 1 ~! inst16|LatchB|latches [5] $end
$var wire 1 !" inst16|LatchB|latches [4] $end
$var wire 1 "" inst16|LatchB|latches [3] $end
$var wire 1 #" inst16|LatchB|latches [2] $end
$var wire 1 $" inst16|LatchB|latches [1] $end
$var wire 1 %" inst16|LatchB|latches [0] $end
$upscope $end
$upscope $end
$enddefinitions $end
#0
$dumpvars
b1001110010101001 !
x"
0#
0$
0%
b1010011110011 &
b1001100001001001 '
x7
x6
x5
x4
x3
x2
x1
x0
x/
x.
x-
x,
x+
x*
x)
x(
xG
xF
xE
xD
xC
xB
xA
x@
x?
x>
x=
x<
x;
x:
x9
x8
0H
1I
xJ
1K
1L
1M
xN
xO
xP
xQ
xR
xS
xT
xU
xV
xW
xX
xY
xZ
x[
x\
x]
x^
x_
x`
xa
xb
xc
xd
xe
xf
xg
xh
xi
xj
xk
xl
xm
xn
1o
0p
0q
0r
0s
0t
0u
0v
0w
0x
0y
0z
1{
1|
0}
1~
0!!
0"!
0#!
1$!
0%!
0&!
0'!
0(!
0)!
0*!
0+!
0,!
1-!
0.!
1/!
10!
01!
02!
13!
04!
05!
16!
07!
18!
09!
0:!
0;!
0<!
0=!
0>!
1?!
0@!
1A!
1B!
0C!
1D!
0E!
0F!
1G!
1H!
1I!
0J!
0K!
1L!
0M!
1N!
0O!
1P!
0Q!
0R!
1S!
0c!
0b!
0a!
0`!
0_!
0^!
0]!
0\!
0[!
0Z!
0Y!
0X!
0W!
0V!
0U!
0T!
xs!
xr!
xq!
xp!
xo!
xn!
xm!
xl!
xk!
xj!
xi!
xh!
xg!
xf!
xe!
xd!
x%"
x$"
x#"
x""
x!"
x~!
x}!
x|!
x{!
xz!
xy!
xx!
xw!
xv!
xu!
xt!
$end
#5000
1#
1$
1t
1p
1%"
0$"
0#"
1""
0!"
1~!
0}!
1|!
0{!
0z!
1y!
1x!
1w!
0v!
0u!
1t!
0s!
0r!
0q!
0p!
0o!
0n!
0m!
0l!
0k!
0j!
0i!
0h!
0g!
0f!
0e!
0d!
0O
0P
0Q
0R
0S
0T
0U
0V
0W
0X
0Y
0Z
0[
0\
0]
0^
1_
0`
0a
1b
1c
1d
0e
0f
1g
0h
1i
0j
1k
0l
0m
1n
1G
0F
0E
1D
0C
1B
0A
1@
0?
0>
1=
1<
1;
0:
09
18
07
06
05
04
03
02
01
00
0/
0.
0-
0,
0+
0*
0)
0(
1c!
1b!
1_!
1^!
1]!
1\!
1Y!
1W!
1C!
1@!
17!
14!
11!
1.!
1%!
1}
1s!
1r!
1o!
1n!
1m!
1l!
1i!
1g!
1R
1T
1W
1X
1Y
1Z
1]
1^
17
16
13
12
11
10
1-
1+
#10000
b1110010101001 !
b1010010101001 !
b1000010101001 !
b1000000101001 !
b1000001101001 !
b1000001001001 !
b1000001000001 !
b1000001000101 !
b1000001000111 !
b1001010011110011 &
b1101010011110011 &
b1111010011110011 &
b1111011011110011 &
b1111011111110011 &
b1111011111010011 &
b1111011111000011 &
b1111011111001011 &
b1111011111001001 &
b1111011111001000 &
b1100001001001 '
b1110001001001 '
b1110000001001 '
b1110000000001 '
b1110000000101 '
b1110000000111 '
b1110000000110 '
0#
0$
0A!
1>!
1;!
08!
0/!
1#!
0o
1R!
1Q!
0P!
0N!
1M!
0L!
0I!
0H!
0D!
0t
0B!
0?!
19!
06!
03!
1*!
1'!
1y
1v
1q
0p
#15000
1#
1$
1t
1p
1$"
1#"
0""
0~!
1}!
0|!
0y!
0x!
0t!
0_
0c
0d
0g
1h
0i
0k
1l
1m
1F
1E
0D
0B
1A
0@
0=
0<
08
0c!
0b!
1`!
0_!
0^!
1[!
1Z!
1V!
1U!
1T!
0C!
0@!
1:!
07!
04!
1+!
1(!
1z
1w
1s
0s!
0r!
1p!
0o!
0n!
1k!
1j!
1f!
1e!
1d!
1O
1P
1Q
1U
1V
0Y
0Z
1[
0]
0^
07
06
14
03
02
1/
1.
1*
1)
1(
#20000
b101000001000111 !
b100000001000111 !
b1110011111001000 &
b1110111111001000 &
b1110111101001000 &
b1110111101001100 &
b11110000000110 '
b11110100000110 '
b11110100100110 '
b1100000001000111 !
b1100000000000111 !
b1100000000100111 !
b1100000000101111 !
b1100000000101011 !
b110111101001100 &
b100111101001100 &
b100110101001100 &
b100110101101100 &
b100110101111100 &
b100110101110100 &
b11110100101110 '
b11110100101010 '
0#
0$
0;!
18!
12!
1)!
1x
0Q!
1P!
1N!
0M!
0G!
1E!
1D!
0t
1<!
09!
16!
13!
0-!
0'!
1!!
0|
0y
0q
0p
#25000
1#
1$
1t
1p
0#"
1""
1~!
0}!
0w!
1u!
1t!
1_
1`
0b
0h
1i
1k
0l
0E
1D
1B
0A
0;
19
18
1a!
0`!
1_!
1^!
0\!
0Z!
1X!
0W!
0V!
0T!
1=!
0:!
17!
14!
0.!
0(!
1"!
0}
0z
0s
1q!
0p!
1o!
1n!
0l!
0j!
1h!
0g!
0f!
0d!
0O
0Q
0R
1S
0U
0W
1Y
1Z
0[
1\
15
04
13
12
00
0.
1,
0+
0*
0(
#30000
b1100000100101011 !
b111110100101010 '
b111010100101010 '
b111010110101010 '
b1100000100101001 !
b110101110100 &
b110101110110 &
b110101110111 &
b1111010110101010 '
b1111010110101000 '
b1111010110101001 '
b1101000100101001 !
b110111110111 &
b110111110011 &
b1101010110101001 '
b1101010110001001 '
b101000100101001 !
b101000101101001 !
b101000101001001 !
b101000101000001 !
b1000110111110011 &
b1010110111110011 &
b1010110111010011 &
0$
1A!
0>!
02!
1,!
0~
0x
1u
1o
0R!
0P!
0N!
1M!
1K!
1G!
0D!
0t
1B!
1?!
0<!
03!
1-!
1y
0v
1q
#35000
1$
1t
0$"
0""
0~!
1}!
1{!
1w!
0t!
0_
1b
1f
1h
0i
0k
0m
0F
0D
0B
1A
1?
1;
08
#40000
b111000101000001 !
b111000101000000 !
b1010110110010011 &
b111100101000000 !
b1010110010010011 &
b1101010111001001 '
b11100101000000 !
b11100101000100 !
b1010110010000011 &
b1010110010001011 &
b1101010111000001 '
b1101010111000101 '
b11100001000100 !
b1101110111000101 '
b11100001000110 !
b1110110010001011 &
b1110110010001001 &
b1110110010001000 &
b1101110111000111 '
b10100001000110 !
b1110110010001100 &
b1111110111000111 '
b1111110111100111 '
b10100000000110 !
b110110010001100 &
b100110010001100 &
0$
1>!
1;!
08!
12!
1/!
1~
1x
0S!
1R!
1Q!
0M!
0K!
1H!
0G!
1F!
0E!
0t
0B!
0?!
1<!
19!
06!
00!
0*!
0y
1v
0q
#45000
1$
1t
0%"
1$"
1#"
0}!
0{!
1x!
0w!
1v!
0u!
0`
1a
0b
1c
0f
0h
1l
1m
0n
0G
1F
1E
0A
0?
1<
0;
1:
09
#50000
b10100000010110 !
b100100010001100 &
b1110110111100111 '
b10110000010110 !
b10110010010110 !
b1110110011100111 '
b100101010001100 &
b1110110011100110 '
b100101000001100 &
b10110010110110 !
b10110010111110 !
b100101000101100 &
b10110010111111 !
b10010010111111 !
b1110110010100110 '
b100101000111100 &
b1110010010100110 '
b10010010111101 !
b101000111100 &
b101000111101 &
b1110010010100100 '
b1100010010100100 '
b1100010010000100 '
b10010011111101 !
b10101000111101 &
0$
0A!
0>!
02!
0/!
0)!
0~
0{
0x
1S!
0R!
1P!
1O!
1N!
1M!
1L!
1I!
0H!
0t
1B!
16!
13!
0-!
1'!
0$!
1y
0v
#55000
1$
1t
1%"
0$"
1""
1!"
1~!
1}!
1|!
1y!
0x!
0c
1d
1g
1h
1i
1j
1k
0m
1n
1G
0F
1D
1C
1B
1A
1@
1=
0<
#60000
b10011011111101 !
b1100011010000100 '
b1010011011111101 !
b1000011011111101 !
b1100011011111101 !
b1100011011111001 !
b1100011010000000 '
b1101011011111001 !
b10101000111001 &
b10111000111001 &
b1100011010000001 '
b1101011011110001 !
b1101011011110000 !
b1101111011110000 !
b10111000101001 &
b1100111010000001 '
b1101111011110010 !
b1100111010100001 '
b1101111010110010 !
0$
1A!
0;!
12!
1&!
1~
0S!
1R!
0Q!
0P!
0M!
1J!
1H!
1G!
0F!
1E!
1D!
0t
0<!
06!
1$!
#65000
1$
1t
0%"
1$"
0#"
0""
0}!
1z!
1x!
1w!
0v!
1u!
1t!
1_
1`
0a
1b
1c
1e
0h
0k
0l
1m
0n
0G
1F
0E
0D
0A
1>
1<
1;
0:
19
18
#70000
b1100101010100001 '
b11111000101001 &
b1000101010100001 '
b1000101000100001 '
b11111001101001 &
b11111101101001 &
b1101111110110010 !
b1011111101101001 &
b1001101000100001 '
b1101101110110010 !
b1101101100110010 !
b1011110101101001 &
b1011110111101001 &
b1101101100010010 !
b1001101001100001 '
b1111110111101001 &
b1111110111101000 &
b1001101001100011 '
b1101110111101000 &
b1001100001100011 '
b101101100010010 !
b1101100010010 !
b1001100001100010 '
b1101100011010 !
b1101100011011 !
b1001100011011 !
b1101110111111000 &
b1001000001100010 '
b1001100011001 !
0$
1S!
0R!
1P!
0N!
0L!
1K!
0I!
0H!
0E!
0D!
0A!
1>!
1/!
0,!
0&!
0#!
0~
1{
0u
0t
0B!
16!
10!
1-!
1*!
0'!
1|
0y
1v
1q
#75000
1$
1t
1%"
0$"
1""
0~!
0|!
1{!
0y!
0x!
0u!
0t!
0_
0`
0c
0d
1f
0g
0i
1k
0m
1n
1G
0F
1D
0B
0@
1?
0=
0<
09
08
#80000
b1001000001110010 '
b1101010111111000 &
b1000001110010 '
b1101010111110000 &
b1000001111010 '
b1101010111110010 &
b1000101111010 '
b1101010111010010 &
b11000101111010 '
b1101010111010110 &
b1101000111010110 &
b1001101011001 !
b111000101111010 '
b111000111111010 '
b1101000110010110 &
b1001001011001 !
b110000111111010 '
b110000110111010 '
b1001000110010110 &
b101001001011001 !
b110000110111011 '
b101001001010001 !
b101001001010000 !
b101101001010000 !
b110100110111011 '
b101101001010010 !
0$
0S!
1R!
0P!
1M!
0K!
1H!
1E!
1A!
18!
15!
0/!
1,!
1)!
1~
0{
1x
1u
0o
0t
1?!
1<!
09!
03!
00!
0$!
0!!
0v
#85000
1$
1t
0%"
1$"
0""
1}!
0{!
1x!
1u!
1`
1c
0f
1h
0k
1m
0n
0G
1F
0D
1A
0?
1<
19
#90000
b101101001000010 !
b110100110111111 '
b100101001000010 !
b1001000010010110 &
b1001000010010111 &
b110100110111101 '
b110101110111101 '
b1100101001000010 !
b110101110101101 '
b1110101110101101 '
b1001000010110111 &
b1001000010110011 &
b1100101000000010 !
b1001000011110011 &
b1110101111101101 '
b1000101000000010 !
b1000101000000011 !
0$
0>!
1;!
05!
1/!
1&!
1o
1S!
0O!
0M!
0G!
0E!
1D!
0t
1B!
0<!
13!
10!
0*!
#95000
1$
1t
1%"
0!"
0}!
0w!
0u!
1t!
1_
0`
0b
0h
0j
1n
1G
0C
0A
0;
09
18
#100000
b1000100000000011 !
b1010100000000011 !
b1110101111001101 '
b1110111111001101 '
b1000000011110011 &
b1010110000000011 !
b1010110010000011 !
b1000001011110011 &
b1000001001110011 &
b1010001001110011 &
b1010101001110011 &
b1110111111000101 '
b1010110110000011 !
b1110111111000100 '
b1010110110001011 !
b1010010110001011 !
b1110011111000100 '
b1010010110001001 !
b1110011111000110 '
b10010110001001 !
b1110011111010110 '
b1010101001010011 &
b1010101001010111 &
b1010101000010111 &
b1110011110010110 '
0$
0A!
1>!
08!
15!
02!
0/!
1#!
0~
0R!
1P!
1L!
1K!
0J!
1I!
0H!
1F!
0D!
0t
1<!
03!
00!
0-!
1'!
1!!
0|
1y
#105000
1$
1t
0$"
1""
1|!
1{!
0z!
1y!
0x!
1v!
0t!
0_
1a
0c
1d
0e
1f
1g
1k
0m
0F
1D
1@
1?
0>
1=
0<
1:
08
#110000
b10010110001101 !
b10101000010111 &
b10010110101101 !
b10101000011111 &
b1100011110010110 '
b10111000011111 &
b1100011100010110 '
b1101011100010110 '
b1101011100010010 '
b11010110101101 !
b10111100011111 &
b11010110101100 !
b1101011100110010 '
b11111100011111 &
b1111100011111 &
b1011100011111 &
b11010010101100 !
b11110010101100 !
b11110010101110 !
b1101011101110010 '
0$
0;!
12!
1/!
0,!
1{
0x
0S!
1R!
1Q!
1N!
0K!
1H!
1G!
0t
19!
1*!
1$!
0!!
1|
0y
0q
#115000
1$
1t
0%"
1$"
1#"
1~!
0{!
1x!
1w!
1b
1c
0f
1i
1l
1m
0n
0G
1F
1E
1B
0?
1<
1;
#120000
0#
b1011100011101 &
b101011100011101 &
b11110010111110 !
b101011100011100 &
b101011101110010 '
b11110011111110 !
b111110011111110 !
b101110011111110 !
b101001101110010 '
b101100011111110 !
b101010100011100 &
b101001101110011 '
b101100011110110 !
b101010100011000 &
b101010101011000 &
b101100011010110 !
b101010101010000 &
b111001101110011 '
b111001111110011 '
b110001111110011 '
b110001111110111 '
b100100011010110 !
b101010001010000 &
b100100011010111 !
b110001111010111 '
b111010001010000 &
b111110001010000 &
b100100111010111 !
b100000111010111 !
b110001110010111 '
0$
1A!
1;!
02!
0/!
1,!
0#!
0{
1x
0o
1S!
0P!
1O!
0N!
1M!
1K!
0I!
0H!
0G!
0F!
1E!
0t
0p
0B!
0?!
0<!
09!
10!
0*!
0'!
1!!
1y
1v
#125000
1#
1$
1t
1p
1%"
0""
1!"
0~!
1}!
1{!
0y!
0x!
0w!
0v!
1u!
1`
0a
0b
0c
0d
1f
1h
0i
1j
0k
1n
1G
0D
1C
0B
1A
1?
0=
0<
0;
0:
19
0a!
0^!
0[!
1W!
1V!
0=!
04!
0+!
1}
1z
0q!
0n!
0k!
1g!
1f!
1Q
1R
0V
0Y
0\
05
02
0/
1+
1*
#130000
b111110001000000 &
b110001010010111 '
b110000010010111 '
b100001111010111 !
b100001101010111 !
b111110011000000 &
b110000010011111 '
b110000010011101 '
b1100001101010111 !
b1100001101010011 !
b111100011000000 &
b111100011000010 &
b1100001101000011 !
b111100011000011 &
b1110000010011101 '
b1110010010011101 '
b1100011101000011 !
b111101011000011 &
b1110010010011100 '
b111101011000111 &
b111101010000111 &
b1100011101100011 !
b1110010000011100 '
b1111010000011100 '
b1111010000011000 '
b1100011101100010 !
b1111010000111000 '
b101101010000111 &
b101001010000111 &
b1100111101100010 !
b1111010001111000 '
0#
0$
0S!
0Q!
0O!
1N!
0L!
1J!
1I!
1H!
1D!
0A!
0>!
0;!
18!
12!
1/!
0,!
0)!
0&!
1#!
1{
1o
0t
1B!
1?!
1<!
06!
00!
1-!
1'!
0$!
0!!
0y
0p
#135000
1#
1$
1t
1p
0%"
0#"
0!"
1~!
0|!
1z!
1y!
1x!
1t!
1_
1c
1d
1e
0g
1i
0j
0l
0n
0G
0E
0C
1B
0@
1>
1=
1<
18
1c!
1b!
1a!
0_!
0]!
1\!
1Z!
0Y!
0X!
0V!
1C!
1@!
1=!
07!
01!
1.!
1(!
0%!
0"!
0z
1s!
1r!
1q!
0o!
0m!
1l!
1j!
0i!
0h!
0f!
0Q
0S
0T
1U
1W
0X
0Z
1\
1]
1^
17
16
15
03
01
10
1.
0-
0,
0*
#140000
1%
b1011010001111000 '
b1011010001101000 '
b101001010100111 &
b100001010100111 &
b1100111101100000 !
b1010100111 &
b1100111100100000 !
b1010101111 &
b1101111100100000 !
b1110101111 &
b1011010101101000 '
b1011011101101000 '
b1101110100100000 !
b1100101111 &
b1101110100100100 !
b11100101111 &
b1101110100110100 !
b1101100100110100 !
b11100101011 &
b1011011111101000 '
b1010011111101000 '
b1101100100110101 !
b1101000100110101 !
b1010011110101000 '
0#
0$
1r
1S!
0R!
1Q!
1O!
0M!
0J!
0I!
0H!
1G!
05!
0/!
1,!
1)!
1&!
0{
0u
0t
0<!
19!
13!
0-!
1*!
1$!
0|
0v
0p
0C!
0@!
0=!
1:!
14!
1+!
1%!
0}
1z
0w
1s
#145000
1#
1$
1t
1p
1%"
0$"
1#"
1!"
0}!
0z!
0y!
0x!
1w!
0s!
0r!
0q!
1p!
1n!
1k!
1i!
0g!
1f!
0e!
1d!
1O
0P
1Q
0R
1T
1V
1Y
1[
0\
0]
0^
1b
0c
0d
0e
0h
1j
1l
0m
1n
1G
0F
1E
1C
0A
0>
0=
0<
1;
07
06
05
14
12
1/
1-
0+
1*
0)
1(
0a!
1`!
1^!
0\!
1[!
1Y!
0W!
0U!
#150000
b1001000100110101 !
b1011000100110101 !
b1011000100111101 !
b1000011110101000 '
b1000011110101010 '
b11100101010 &
b1000011110101011 '
b1011000100011101 !
b1000011110101111 '
b1000011110001111 '
b10011100101010 &
b10111100101010 &
b10111100001010 &
b11111100001010 &
b1011000100011111 !
b111111100001010 &
b1011000101011111 !
b111111100001110 &
b1000011100001111 '
b1011100101011111 !
b1000011101001111 '
0#
0$
1A!
1>!
1;!
02!
1/!
0,!
0x
1R!
1P!
0N!
1M!
1H!
1F!
0E!
0t
0B!
1<!
03!
1!!
1|
1y
1v
0p
1C!
1@!
1=!
04!
11!
0.!
0z
#155000
1#
1$
1t
1p
1$"
1""
0~!
1}!
1x!
1v!
0u!
1s!
1r!
1q!
0n!
1m!
0l!
0f!
0Q
0W
1X
0Y
1\
1]
1^
0`
1a
1c
1h
0i
1k
1m
1F
1D
0B
1A
1<
1:
09
17
16
15
02
11
00
0*
0c!
1a!
0^!
1X!
1W!
1V!
1U!
#160000
b1000111101001111 '
b1011100111011111 !
b111110100001110 &
b111110101001110 &
b1100111101001111 '
b1100111101011111 '
b111110101000110 &
b1010100111011111 !
b111110001000110 &
b1010110111011111 !
b1101111101011111 '
b1010110111011110 !
b1000110111011110 !
b1000110111010110 !
b1101111101011101 '
b1101111101111101 '
b111110001100110 &
0#
0$
0S!
0P!
1L!
1I!
0G!
0F!
0>!
15!
12!
1~
1{
1u
0t
09!
13!
10!
0*!
0'!
0p
0@!
17!
14!
1"!
1}
1w
#165000
1#
1$
1t
1p
0%"
0""
1|!
1y!
0w!
0v!
0r!
1o!
1n!
1h!
1g!
1e!
1P
1R
1S
1Y
1Z
0]
0a
0b
1d
1g
0k
0n
0G
0D
1@
1=
0;
0:
06
13
12
1,
1+
1)
0`!
1^!
1]!
0[!
0Z!
#170000
b110111010110 !
b111110001100100 &
b101111101111101 '
b101111001111101 '
b111110011100100 &
b111100011100100 &
b110111000110 !
b100110111000110 !
b111111001111101 '
b111100011100101 &
b111111001111100 '
b111111011111100 '
b11111011111100 '
b11111011101100 '
b111100011101101 &
b101110111000110 !
b101100111000110 !
b10111011101100 '
b101100111001110 !
b111100011001101 &
0#
0$
0A!
05!
1,!
0)!
0{
1x
0u
0o
1P!
0O!
0I!
1G!
1E!
0D!
0t
1B!
0?!
19!
03!
1-!
0$!
0p
0C!
07!
1.!
0+!
0}
1z
0w
0s
#175000
1#
1$
1t
1p
1""
0!"
0y!
1w!
1u!
0t!
0s!
0o!
1l!
0k!
0g!
1f!
0e!
0d!
0O
0P
1Q
0R
0V
1W
0Z
0^
0_
1`
1b
0d
0j
1k
1D
0C
0=
1;
19
08
07
03
10
0/
0+
1*
0)
0(
1c!
0b!
1`!
0^!
1\!
0Y!
#180000
b10111011100100 '
b101101111001110 !
b101101111101110 !
b10111011100000 '
b111000011001101 &
b110000011001101 &
b101101110101110 !
b110000010001101 &
b101101110101111 !
b111101110101111 !
b10111011100010 '
b10111011000010 '
b110000010001111 &
b1010111011000010 '
b1010111111000010 '
b110000000001111 &
b110010000001111 &
b1010111111000011 '
b1110111111000011 '
b110010000000111 &
b111111110101111 !
b1111111111000011 '
0#
0$
1S!
1N!
0M!
1J!
1I!
1F!
1A!
1>!
0;!
08!
02!
1)!
1{
1u
1o
0t
1?!
09!
00!
0-!
1$!
0!!
0|
0p
1C!
1@!
0=!
0:!
04!
1+!
1}
1w
1s
